{
  "project_info": {
    "project_number": "7263485354",
    "firebase_url": "https://qrmenu-dev-3a58c-default-rtdb.europe-west1.firebasedatabase.app",
    "project_id": "qrmenu-dev-3a58c",
    "storage_bucket": "qrmenu-dev-3a58c.appspot.com"
  },
  "client": [
    {
      "client_info": {
        "mobilesdk_app_id": "1:7263485354:android:35a6923570c05f2a04ffd3",
        "android_client_info": {
          "package_name": "com.myasnikoviv.qrmenu"
        }
      },
      "oauth_client": [
        {
          "client_id": "7263485354-vnilfkrlmv3dd4qe5uj7jk40dhfejmgj.apps.googleusercontent.com",
          "client_type": 3
        }
      ],
      "api_key": [
        {
          "current_key": "AIzaSyAjhJdMSIYnVvs9tDiYSedZ5O_yinYpfOQ"
        }
      ],
      "services": {
        "appinvite_service": {
          "other_platform_oauth_client": [
            {
              "client_id": "7263485354-vnilfkrlmv3dd4qe5uj7jk40dhfejmgj.apps.googleusercontent.com",
              "client_type": 3
            },
            {
              "client_id": "7263485354-69vjq0p2skejk907hqkj4ift2i1hqqq3.apps.googleusercontent.com",
              "client_type": 2,
              "ios_info": {
                "bundle_id": "com.myasnikoviv.qrmenu"
              }
            }
          ]
        }
      }
    },
    {
      "client_info": {
        "mobilesdk_app_id": "1:7263485354:android:de6991c8a7e15cef04ffd3",
        "android_client_info": {
          "package_name": "com.myasnikoviv.qrmenu"
        }
      },
      "oauth_client": [
        {
          "client_id": "7263485354-vnilfkrlmv3dd4qe5uj7jk40dhfejmgj.apps.googleusercontent.com",
          "client_type": 3
        }
      ],
      "api_key": [
        {
          "current_key": "AIzaSyAjhJdMSIYnVvs9tDiYSedZ5O_yinYpfOQ"
        }
      ],
      "services": {
        "appinvite_service": {
          "other_platform_oauth_client": [
            {
              "client_id": "7263485354-vnilfkrlmv3dd4qe5uj7jk40dhfejmgj.apps.googleusercontent.com",
              "client_type": 3
            },
            {
              "client_id": "7263485354-69vjq0p2skejk907hqkj4ift2i1hqqq3.apps.googleusercontent.com",
              "client_type": 2,
              "ios_info": {
                "bundle_id": "com.myasnikoviv.qrmenu"
              }
            }
          ]
        }
      }
    }
  ],
  "configuration_version": "1"
}